/category/shop/food-and-drinks/bakery/cakes/custom-cakes/2951/2953
/category/shop/food-and-drinks/bakery/cakes/theme-cakes/2951/2955
/category/shop/food-and-drinks/bakery/cakes/gourmet-cakes/2951/2954
/category/shop/food-and-drinks/bakery/cakes/cheesecakes/2951/2956
/category/shop/food-and-drinks/bakery/cakes/cupcakes/2951/2958
/category/shop/food-and-drinks/bakery/cakes/tres-leches/2951/2959
/category/shop/food-and-drinks/bakery/cakes/ice-cream-cakes/2951/2960
/category/shop/food-and-drinks/bakery/cakes/bundt-cakes/2951/378010
/category/shop/food-and-drinks/bakery/cakes/candles/2951/2952
/category/shop/food-and-drinks/bakery/donuts-and-pastries/2944/378009
/category/shop/food-and-drinks/food-to-go-and-catering/party-trays/bakery-trays/3111/3619
/category/shop/food-and-drinks/bakery/desserts/pies/2961/309049
/category/shop/food-and-drinks/bakery/desserts/cookies/2961/2964
/category/shop/food-and-drinks/bakery/desserts/brownies/2961/2966
/category/shop/food-and-drinks/bakery/desserts/gourmet-desserts/2961/378011
/category/shop/food-and-drinks/bakery/breads/bagels/2945/2946
/category/shop/food-and-drinks/bakery/breads/rolls/2945/2947
/category/shop/food-and-drinks/bakery/breads/croissants/2945/2948
/category/shop/food-and-drinks/bakery/breads/tortillas/2945/2949
/category/shop/food-and-drinks/bakery/breads/artisan-breads/2945/2950
/category/shop/food-and-drinks/grocery/snacks-and-candy/dried-fruits-and-nuts/3080/3508
/category/shop/food-and-drinks/grocery/snacks-and-candy/jerky/3080/3509
/category/shop/food-and-drinks/grocery/snacks-and-candy/party-snacks/3080/3510
/category/shop/food-and-drinks/grocery/snacks-and-candy/corn-chips/3080/3511
/category/shop/food-and-drinks/grocery/snacks-and-candy/tortilla-chips/3080/3512
/category/shop/food-and-drinks/grocery/snacks-and-candy/potato-chips/3080/3513
/category/shop/food-and-drinks/grocery/snacks-and-candy/variety-pack-chips/3080/3514
/category/shop/food-and-drinks/grocery/snacks-and-candy/pork-rinds-and-other-chips/3080/3515
/category/shop/food-and-drinks/grocery/snacks-and-candy/popcorn-and-rice-cakes/3080/3516
/category/shop/food-and-drinks/grocery/snacks-and-candy/pretzels/3080/3517
/category/shop/food-and-drinks/grocery/snacks-and-candy/dips/3080/3518
/category/shop/food-and-drinks/grocery/snacks-and-candy/cookies/3080/3519
/category/shop/food-and-drinks/grocery/snacks-and-candy/snack-bars/3080/3520
/category/shop/food-and-drinks/grocery/snacks-and-candy/pudding-and-gelatin/3080/3521
/category/shop/food-and-drinks/grocery/snacks-and-candy/snack-cakes/3080/3522
/category/shop/food-and-drinks/grocery/snacks-and-candy/protein-and-energy-bars/3080/3523
/category/shop/food-and-drinks/grocery/snacks-and-candy/candy/3080/3524
/category/shop/food-and-drinks/grocery/soup-and-meals/canned-soup/3081/3525
/category/shop/food-and-drinks/grocery/soup-and-meals/easy-dinners/3081/3526
/category/shop/food-and-drinks/grocery/soup-and-meals/box-potatoes/3081/3528
/category/shop/food-and-drinks/grocery/canned-food/canned-chili/3087/3529
/category/shop/food-and-drinks/grocery/soup-and-meals/canned-pasta/3081/3530
/category/shop/food-and-drinks/grocery/soup-and-meals/ramen-and-soup-mix/3081/3531
/category/shop/food-and-drinks/grocery/soup-and-meals/ready-to-eat-meals/3081/3532
/category/shop/food-and-drinks/grocery/bread-and-tortillas/sandwich-bread/3082/3533
/category/shop/food-and-drinks/grocery/bread-and-tortillas/tortillas/3082/3534
/category/shop/food-and-drinks/grocery/bread-and-tortillas/taco-shells-and-tostadas/3082/3535
/category/shop/food-and-drinks/grocery/bread-and-tortillas/bagels-and-english-muffins/3082/3536
/category/shop/food-and-drinks/grocery/bread-and-tortillas/buns/3082/3537
/category/shop/food-and-drinks/grocery/cereal-and-breakfast/peanut-butter-and-jelly/3089/3538
/category/shop/food-and-drinks/grocery/bread-and-tortillas/dinner-rolls-and-breads/3082/309264
/category/shop/food-and-drinks/grocery/bread-and-tortillas/breakfast-breads/3082/309286
/category/shop/food-and-drinks/grocery/bread-and-tortillas/pita-and-flatbreads/3082/353911
/category/shop/food-and-drinks/dairy/cheese/shredded-and-parmesan-cheese/3060/3439
/category/shop/food-and-drinks/grocery/pasta-rice-and-beans/dry-beans/3083/3539
/category/shop/food-and-drinks/grocery/pasta-rice-and-beans/rice-and-grains/3083/3540
/category/shop/food-and-drinks/grocery/pasta-rice-and-beans/pasta/3083/3541
/category/shop/food-and-drinks/grocery/condiments-and-sauces/pasta-sauce/3085/3565
/category/shop/food-and-drinks/grocery/international-food/kosher/3084/3544
/category/shop/food-and-drinks/grocery/international-food/asian/3084/3545
/category/shop/food-and-drinks/grocery/international-food/mexican/3084/3546
/category/shop/food-and-drinks/grocery/international-food/african/3084/3547
/category/shop/food-and-drinks/grocery/international-food/british/3084/3548
/category/shop/food-and-drinks/grocery/international-food/caribbean/3084/3549
/category/shop/food-and-drinks/grocery/international-food/german/3084/3550
/category/shop/food-and-drinks/grocery/international-food/indian/3084/3552
/category/shop/food-and-drinks/grocery/international-food/italian/3084/3553
/category/shop/food-and-drinks/grocery/international-food/latin-american/3084/3554
/category/shop/food-and-drinks/grocery/international-food/mediterranean/3084/3555
/category/shop/food-and-drinks/grocery/international-food/mideast/3084/3556
/category/shop/food-and-drinks/fruit-and-vegetables/prepared-fruit-and-vegetables/prepared-guacamole-and-salsa/3047/3375
/category/shop/food-and-drinks/grocery/cereal-and-breakfast/peanut-butter-and-jelly/3089/3538
/category/shop/food-and-drinks/grocery/condiments-and-sauces/bbq-sauce/3085/3557
/category/shop/food-and-drinks/grocery/condiments-and-sauces/ketchup-and-mustard/3085/3558
/category/shop/food-and-drinks/grocery/condiments-and-sauces/marinades-and-special-sauces/3085/3559
/category/shop/food-and-drinks/grocery/condiments-and-sauces/salsa-and-hot-sauce/3085/3560
/category/shop/food-and-drinks/grocery/canned-food/olives-and-peppers/3087/3562
/category/shop/food-and-drinks/grocery/condiments-and-sauces/relish-and-pickles/3085/3563
/category/shop/food-and-drinks/grocery/condiments-and-sauces/steak-sauce/3085/3564
/category/shop/food-and-drinks/grocery/condiments-and-sauces/pasta-sauce/3085/3565
/category/shop/food-and-drinks/grocery/condiments-and-sauces/honey/3085/3566
/category/shop/food-and-drinks/grocery/oil-vinegar-and-dressing/salad-toppings/3086/26396
/category/shop/food-and-drinks/grocery/condiments-and-sauces/mayonnaise-and-sandwich-spreads/3085/26397
/category/shop/food-and-drinks/grocery/oil-vinegar-and-dressing/salad-dressing/3086/3568
/category/shop/food-and-drinks/grocery/oil-vinegar-and-dressing/salad-toppings/3086/26396
/category/shop/food-and-drinks/grocery/oil-vinegar-and-dressing/oils/3086/423028
/category/shop/food-and-drinks/grocery/oil-vinegar-and-dressing/vinegar-and-cooking-wine/3086/423045
/category/shop/food-and-drinks/grocery/canned-food/canned-chili/3087/3529
/category/shop/food-and-drinks/grocery/canned-food/olives-and-peppers/3087/3562
/category/shop/food-and-drinks/grocery/canned-food/canned-vegetables/3087/3570
/category/shop/food-and-drinks/grocery/canned-food/canned-beans/3087/3571
/category/shop/food-and-drinks/grocery/canned-food/canned-fruit/3087/3573
/category/shop/food-and-drinks/grocery/canned-food/canned-meat/3087/3574
/category/shop/food-and-drinks/grocery/canned-food/canned-seafood/3087/3575
/category/shop/food-and-drinks/grocery/canned-food/condensed-and-powdered-milk/3087/3599
/category/shop/food-and-drinks/drinks/coffee-tea-and-cocoa/ready-to-drink-coffee-and-tea/3088/3093
/category/shop/food-and-drinks/drinks/coffee-tea-and-cocoa/single-cup-coffee-and-drinks/3088/26429
/category/shop/food-and-drinks/drinks/coffee-tea-and-cocoa/instant-coffee/3088/26430
/category/shop/food-and-drinks/drinks/coffee-tea-and-cocoa/bagged-and-canned-coffee/3088/26431
/category/shop/food-and-drinks/drinks/coffee-tea-and-cocoa/cocoa/3088/26432
/category/shop/food-and-drinks/drinks/coffee-tea-and-cocoa/tea/3088/26433
/category/shop/food-and-drinks/drinks/coffee-tea-and-cocoa/creamers/3088/26434
/category/shop/food-and-drinks/grocery/cereal-and-breakfast/peanut-butter-and-jelly/3089/3538
/category/shop/food-and-drinks/grocery/cereal-and-breakfast/cereal/3089/3583
/category/shop/food-and-drinks/grocery/cereal-and-breakfast/snack-bars/3089/3584
/category/shop/food-and-drinks/grocery/cereal-and-breakfast/toaster-pastries/3089/3586
/category/shop/food-and-drinks/grocery/cereal-and-breakfast/oatmeal/3089/3587
/category/shop/food-and-drinks/grocery/cereal-and-breakfast/pancake-mix/3089/26405
/category/shop/food-and-drinks/grocery/cereal-and-breakfast/syrup/3089/26406
/category/shop/food-and-drinks/grocery/cookies-and-crackers/family-cookies/3090/3588
/category/shop/food-and-drinks/grocery/cookies-and-crackers/latino-cookies/3090/3589
/category/shop/food-and-drinks/grocery/cookies-and-crackers/multipack-cookies/3090/3590
/category/shop/food-and-drinks/grocery/cookies-and-crackers/saltine-crackers/3090/3591
/category/shop/food-and-drinks/grocery/cookies-and-crackers/sandwich-crackers/3090/3592
/category/shop/food-and-drinks/grocery/cookies-and-crackers/sugar-free-and-healthier-cookies/3090/3593
/category/shop/food-and-drinks/grocery/cookies-and-crackers/wheat-crackers/3090/3594
/category/shop/food-and-drinks/grocery/cookies-and-crackers/multipack-crackers/3090/3595
/category/shop/food-and-drinks/grocery/baking/baking-chocolate-and-nuts/3091/3596
/category/shop/food-and-drinks/grocery/baking/baking-mix-and-yeast/3091/3597
/category/shop/food-and-drinks/grocery/baking/cake-mix-and-icing/3091/3598
/category/shop/food-and-drinks/grocery/canned-food/condensed-and-powdered-milk/3087/3599
/category/shop/food-and-drinks/grocery/baking/cookie-dough/3091/3600
/category/shop/food-and-drinks/grocery/baking/flour-and-meal/3091/3602
/category/shop/food-and-drinks/grocery/baking/marshmallows/3091/3604
/category/shop/food-and-drinks/grocery/baking/pie-crust-and-filling/3091/3606
/category/shop/food-and-drinks/grocery/baking/stuffing-mix/3091/3607
/category/shop/food-and-drinks/grocery/baking/sugar-and-sweeteners/3091/3608
/category/shop/food-and-drinks/grocery/baking/gravy-and-sauce-mix/3091/3611
/category/shop/food-and-drinks/grocery/baking/extracts/3091/3612
/category/shop/food-and-drinks/grocery/oil-vinegar-and-dressing/oils/3086/423028
/category/shop/food-and-drinks/grocery/seasonings-and-spices/seasonings/3092/3609
/category/shop/food-and-drinks/grocery/seasonings-and-spices/salt-and-pepper/3092/3610
/category/shop/food-and-drinks/grocery/baking/gravy-and-sauce-mix/3091/3611
/category/shop/food-and-drinks/grocery/baking/extracts/3091/3612
/category/shop/food-and-drinks/grocery/health-and-diet-foods/2967/3551
/category/shop/food-and-drinks/deli/deli-trays/2974/362602
/category/shop/food-and-drinks/deli/deli-meat/custom-cut-meat/3028/3297
/category/shop/food-and-drinks/deli/deli-meat/ready-sliced-meat/3028/3298
/category/shop/food-and-drinks/dairy/cheese/custom-cut-cheese/3060/3299
/category/shop/food-and-drinks/dairy/cheese/cheese-shop/3060/3300
/category/shop/food-and-drinks/deli/hummus-and-dips/dips/3030/3301
/category/shop/food-and-drinks/deli/hummus-and-dips/hummus/3030/3302
/category/shop/food-and-drinks/deli/fresh-pasta-and-pasta-sauce/salsa/3032/3308
/category/shop/food-and-drinks/deli/chips-and-crackers/chips/3031/3304
/category/shop/food-and-drinks/deli/chips-and-crackers/crackers/3031/3305
/category/shop/food-and-drinks/deli/fresh-pasta-and-pasta-sauce/fresh-pasta/3032/3306
/category/shop/food-and-drinks/deli/fresh-pasta-and-pasta-sauce/fresh-sauce/3032/3307
/category/shop/food-and-drinks/deli/fresh-pasta-and-pasta-sauce/salsa/3032/3308
/category/shop/food-and-drinks/deli/pickles-and-olives/2974/3033
/category/shop/food-and-drinks/deli/desserts/2974/310839
/category/shop/food-and-drinks/wine/country-region/australia-new-zealand/3041/3324
/category/shop/food-and-drinks/wine/country-region/california/3041/3325
/category/shop/food-and-drinks/wine/country-region/france/3041/3326
/category/shop/food-and-drinks/wine/country-region/italy/3041/3327
/category/shop/food-and-drinks/wine/country-region/other-countries-and-regions/3041/3328
/category/shop/food-and-drinks/wine/country-region/pacific-northwest/3041/3329
/category/shop/food-and-drinks/wine/country-region/south-america/3041/3330
/category/shop/food-and-drinks/wine/country-region/spain/3041/3331
/category/shop/food-and-drinks/wine/red/cabernet-sauvignon/3034/3309
/category/shop/food-and-drinks/wine/red/red-blends/3034/3314
/category/shop/food-and-drinks/wine/red/pinot-noir/3034/294815
/category/shop/food-and-drinks/wine/red/other-reds/3034/3313
/category/shop/food-and-drinks/wine/red/merlot/3034/3311
/category/shop/food-and-drinks/wine/red/malbec/3034/3310
/category/shop/food-and-drinks/wine/red/nebbiolo/3034/3312
/category/shop/food-and-drinks/wine/red/sangiovese/3034/3315
/category/shop/food-and-drinks/wine/red/shiraz/3034/3316
/category/shop/food-and-drinks/wine/red/tempranillo/3034/3317
/category/shop/food-and-drinks/wine/white/chardonnay/3035/3787
/category/shop/food-and-drinks/wine/white/sauvignon-blanc/3035/3322
/category/shop/food-and-drinks/wine/white/other-whites/3035/3320
/category/shop/food-and-drinks/wine/white/pinot-grigio/3035/3321
/category/shop/food-and-drinks/wine/white/white-blends/3035/3323
/category/shop/food-and-drinks/wine/white/riesling/3035/355770
/category/shop/food-and-drinks/wine/texas-wines/2975/3040
/category/shop/food-and-drinks/wine/rose/2975/3036
/category/shop/food-and-drinks/wine/sparkling/2975/3037
/category/shop/food-and-drinks/wine/specialty/2975/3038
/category/shop/food-and-drinks/wine/90-points/2975/3039
/category/shop/food-and-drinks/wine/crazy-8s/2975/388590
/category/shop/food-and-drinks/wine/box-wines/2975/297484
/category/shop/food-and-drinks/fruit-and-vegetables/organics/organic-apples/3042/3332
/category/shop/food-and-drinks/fruit-and-vegetables/organics/organic-fruit/3042/3333
/category/shop/food-and-drinks/fruit-and-vegetables/organics/organic-vegetables/3042/3334
/category/shop/food-and-drinks/fruit-and-vegetables/organics/organic-salad-and-dressing/3042/3335
/category/shop/food-and-drinks/fruit-and-vegetables/fruit/apples/3043/3336
/category/shop/food-and-drinks/fruit-and-vegetables/fruit/bananas/3043/3337
/category/shop/food-and-drinks/fruit-and-vegetables/fruit/berries/3043/3338
/category/shop/food-and-drinks/fruit-and-vegetables/fruit/grapes/3043/3339
/category/shop/food-and-drinks/fruit-and-vegetables/fruit/lemons-and-limes/3043/3340
/category/shop/food-and-drinks/fruit-and-vegetables/fruit/melons/3043/3341
/category/shop/food-and-drinks/fruit-and-vegetables/fruit/oranges-and-grapefruits/3043/3342
/category/shop/food-and-drinks/fruit-and-vegetables/fruit/peaches-plums-and-cherries/3043/3343
/category/shop/food-and-drinks/fruit-and-vegetables/fruit/pears/3043/3344
/category/shop/food-and-drinks/fruit-and-vegetables/fruit/specialty-and-exotic-fruit/3043/3345
/category/shop/food-and-drinks/fruit-and-vegetables/fruit/tomatoes/3043/3346
/category/shop/food-and-drinks/fruit-and-vegetables/fruit/tropical/3043/3347
/category/shop/food-and-drinks/fruit-and-vegetables/vegetables/asparagus-and-artichokes/3044/3348
/category/shop/food-and-drinks/fruit-and-vegetables/vegetables/avocados/3044/3349
/category/shop/food-and-drinks/fruit-and-vegetables/vegetables/beans-and-peas/3044/3350
/category/shop/food-and-drinks/fruit-and-vegetables/vegetables/broccoli-and-cauliflower/3044/3351
/category/shop/food-and-drinks/fruit-and-vegetables/vegetables/cabbage-and-greens/3044/3352
/category/shop/food-and-drinks/fruit-and-vegetables/vegetables/carrots/3044/3353
/category/shop/food-and-drinks/fruit-and-vegetables/vegetables/celery-and-cucumbers/3044/3354
/category/shop/food-and-drinks/fruit-and-vegetables/vegetables/chinese-vegetables/3044/3355
/category/shop/food-and-drinks/fruit-and-vegetables/vegetables/corn/3044/3356
/category/shop/food-and-drinks/fruit-and-vegetables/vegetables/eggplant/3044/3357
/category/shop/food-and-drinks/fruit-and-vegetables/vegetables/garlic-and-onions/3044/3358
/category/shop/food-and-drinks/fruit-and-vegetables/vegetables/lettuce/3044/3359
/category/shop/food-and-drinks/fruit-and-vegetables/vegetables/mushrooms/3044/3360
/category/shop/food-and-drinks/fruit-and-vegetables/vegetables/peppers/3044/3361
/category/shop/food-and-drinks/fruit-and-vegetables/vegetables/potatoes/3044/3362
/category/shop/food-and-drinks/fruit-and-vegetables/vegetables/radishes/3044/3363
/category/shop/food-and-drinks/fruit-and-vegetables/vegetables/specialty-vegetables/3044/3364
/category/shop/food-and-drinks/fruit-and-vegetables/vegetables/squash-and-pumpkins/3044/3365
/category/shop/food-and-drinks/fruit-and-vegetables/salad-and-dressing/salad/3045/3369
/category/shop/food-and-drinks/fruit-and-vegetables/salad-and-dressing/dressing/3045/3368
/category/shop/food-and-drinks/fruit-and-vegetables/salad-and-dressing/croutons/3045/3366
/category/shop/food-and-drinks/fruit-and-vegetables/salad-and-dressing/dips/3045/3367
/category/shop/food-and-drinks/fruit-and-vegetables/nuts-and-herbs/bag-snacks/3046/3370
/category/shop/food-and-drinks/fruit-and-vegetables/nuts-and-herbs/herbs/3046/3371
/category/shop/food-and-drinks/fruit-and-vegetables/nuts-and-herbs/nuts/3046/3372
/category/shop/food-and-drinks/fruit-and-vegetables/prepared-fruit-and-vegetables/fresh-drinks/3047/3373
/category/shop/food-and-drinks/fruit-and-vegetables/prepared-fruit-and-vegetables/prepared-fruit/3047/3374
/category/shop/food-and-drinks/fruit-and-vegetables/prepared-fruit-and-vegetables/prepared-guacamole-and-salsa/3047/3375
/category/shop/food-and-drinks/fruit-and-vegetables/prepared-fruit-and-vegetables/prepared-vegetables/3047/3376
/category/shop/food-and-drinks/fruit-and-vegetables/seasonings-and-glaze/seasonings/3048/3377
/category/shop/food-and-drinks/fruit-and-vegetables/seasonings-and-glaze/glaze/3048/3378
/category/shop/food-and-drinks/fruit-and-vegetables/tofu/2976/3426
/category/shop/food-and-drinks/meat-and-seafood/seafood/sushi/3051/3385
/category/shop/food-and-drinks/meat-and-seafood/seafood/fish/3051/3386
/category/shop/food-and-drinks/meat-and-seafood/seafood/shrimp/3051/3387
/category/shop/food-and-drinks/meat-and-seafood/seafood/shellfish/3051/3391
/category/shop/food-and-drinks/meat-and-seafood/seafood/frozen-seafood/3051/17841
/category/shop/food-and-drinks/meat-and-seafood/seafood/cooked-seafood/3051/3388
/category/shop/food-and-drinks/meat-and-seafood/seafood/preseasoned-seafood/3051/3389
/category/shop/food-and-drinks/meat-and-seafood/seafood/seafood-sauces/3051/3390
/category/shop/food-and-drinks/meat-and-seafood/seafood/seafood-seasonings-and-mixes/3051/310036
/category/shop/food-and-drinks/meat-and-seafood/beef/steaks/3052/3392
/category/shop/food-and-drinks/meat-and-seafood/beef/roasts/3052/3393
/category/shop/food-and-drinks/meat-and-seafood/beef/ribs/3052/3394
/category/shop/food-and-drinks/meat-and-seafood/beef/brisket/3052/338579
/category/shop/food-and-drinks/meat-and-seafood/beef/fajitas-and-prepared-meats/3052/3396
/category/shop/food-and-drinks/meat-and-seafood/beef/thin-sliced-milanesa/3052/3397
/category/shop/food-and-drinks/meat-and-seafood/beef/ground-beef/3052/3398
/category/shop/food-and-drinks/meat-and-seafood/beef/burgers/3052/26395
/category/shop/food-and-drinks/meat-and-seafood/beef/cubes-and-stew-meat/3052/3395
/category/shop/food-and-drinks/meat-and-seafood/pork/hams/3053/3401
/category/shop/food-and-drinks/meat-and-seafood/pork/pork-chops-steaks/3053/3402
/category/shop/food-and-drinks/meat-and-seafood/pork/pork-ribs/3053/368385
/category/shop/food-and-drinks/meat-and-seafood/pork/pork-roasts/3053/368387
/category/shop/food-and-drinks/meat-and-seafood/pork/masa-and-tamales/3053/3403
/category/shop/food-and-drinks/meat-and-seafood/poultry/chicken/3054/3404
/category/shop/food-and-drinks/meat-and-seafood/poultry/turkey/3054/3405
/category/shop/food-and-drinks/meat-and-seafood/fully-cooked/briskets/3050/3379
/category/shop/food-and-drinks/meat-and-seafood/fully-cooked/burgers/3050/3380
/category/shop/food-and-drinks/meat-and-seafood/fully-cooked/chicken/3050/3381
/category/shop/food-and-drinks/meat-and-seafood/fully-cooked/dinner/3050/3382
/category/shop/food-and-drinks/meat-and-seafood/fully-cooked/hot-dogs/3050/3383
/category/shop/food-and-drinks/meat-and-seafood/fully-cooked/sides-and-snacks/3050/3384
/category/shop/food-and-drinks/meat-and-seafood/exotic-meat/lamb-and-goat/3057/3425
/category/shop/food-and-drinks/meat-and-seafood/exotic-meat/veal/3057/3424
/category/shop/food-and-drinks/meat-and-seafood/exotic-meat/bison-and-other/3057/3422
/category/shop/food-and-drinks/meat-and-seafood/exotic-meat/offals/3057/3423
/category/shop/food-and-drinks/meat-and-seafood/fully-cooked/hot-dogs/3050/3383
/category/shop/food-and-drinks/meat-and-seafood/bacon-and-sausage/bacon/3055/3406
/category/shop/food-and-drinks/meat-and-seafood/bacon-and-sausage/breakfast-sausage/3055/3407
/category/shop/food-and-drinks/meat-and-seafood/bacon-and-sausage/chorizo/3055/3408
/category/shop/food-and-drinks/meat-and-seafood/bacon-and-sausage/grilling-sausage/3055/3409
/category/shop/food-and-drinks/meat-and-seafood/bacon-and-sausage/summer-sausage/3055/3411
/category/shop/food-and-drinks/meat-and-seafood/lunch/turkey/3056/3414
/category/shop/food-and-drinks/meat-and-seafood/lunch/ham/3056/3415
/category/shop/food-and-drinks/meat-and-seafood/lunch/chicken/3056/3416
/category/shop/food-and-drinks/meat-and-seafood/lunch/roast-beef/3056/3417
/category/shop/food-and-drinks/meat-and-seafood/lunch/salami/3056/3418
/category/shop/food-and-drinks/meat-and-seafood/lunch/variety-packs/3056/3419
/category/shop/food-and-drinks/meat-and-seafood/lunch/bologna/3056/3420
/category/shop/food-and-drinks/meat-and-seafood/lunch/lunch-packs/3056/3412
/category/shop/food-and-drinks/meat-and-seafood/fully-cooked/hot-dogs/3050/3383
/category/shop/food-and-drinks/dairy/cheese/sliced-cheese/3060/3413
/category/shop/food-and-drinks/fruit-and-vegetables/tofu/2976/3426
/category/shop/food-and-drinks/meat-and-seafood/meat-substitutes/meat-substitutes/3058/3427
/category/shop/food-and-drinks/dairy/yogurt/natural-and-organic-yogurt/3059/3428
/category/shop/food-and-drinks/dairy/yogurt/greek-yogurt/3059/3429
/category/shop/food-and-drinks/dairy/yogurt/active-yogurt/3059/3430
/category/shop/food-and-drinks/dairy/yogurt/classic-yogurt/3059/3431
/category/shop/food-and-drinks/dairy/yogurt/frozen-yogurt/3059/3432
/category/shop/food-and-drinks/dairy/yogurt/kids-yogurt/3059/3433
/category/shop/food-and-drinks/dairy/yogurt/smoothies/3059/3434
/category/shop/food-and-drinks/dairy/cheese/custom-cut-cheese/3060/3299
/category/shop/food-and-drinks/dairy/cheese/cheese-shop/3060/3300
/category/shop/food-and-drinks/dairy/cheese/sliced-cheese/3060/3413
/category/shop/food-and-drinks/dairy/cheese/block-cheese/3060/3435
/category/shop/food-and-drinks/dairy/cheese/cottage-cheese/3060/3436
/category/shop/food-and-drinks/dairy/cheese/cream-cheese/3060/3437
/category/shop/food-and-drinks/dairy/cheese/mexican-and-specialty-cheese/3060/3438
/category/shop/food-and-drinks/dairy/cheese/shredded-and-parmesan-cheese/3060/3439
/category/shop/food-and-drinks/dairy/cheese/string-cheese/3060/3441
/category/shop/food-and-drinks/dairy/biscuits-and-dough/biscuits/3061/3442
/category/shop/food-and-drinks/dairy/biscuits-and-dough/cookie-dough/3061/3443
/category/shop/food-and-drinks/dairy/biscuits-and-dough/dessert-rolls/3061/3444
/category/shop/food-and-drinks/dairy/biscuits-and-dough/pie-shells/3061/3445
/category/shop/food-and-drinks/dairy/biscuits-and-dough/ready-to-cook-tortillas/3061/3446
/category/shop/food-and-drinks/dairy/biscuits-and-dough/variety-breads/3061/3447
/category/shop/food-and-drinks/dairy/drinks/orange-juice/3062/3448
/category/shop/food-and-drinks/dairy/drinks/fruit-juices-and-blends/3062/3449
/category/shop/food-and-drinks/dairy/drinks/tea/3062/3450
/category/shop/food-and-drinks/dairy/drinks/coffee/3062/3451
/category/shop/food-and-drinks/dairy/drinks/punch/3062/3452
/category/shop/food-and-drinks/dairy/milk-and-cream/milk/3063/3453
/category/shop/food-and-drinks/dairy/milk-and-cream/coffee-and-creamers/3063/3454
/category/shop/food-and-drinks/dairy/milk-and-cream/buttermilk-and-eggnog/3063/3455
/category/shop/food-and-drinks/dairy/milk-and-cream/whipping-cream/3063/3456
/category/shop/food-and-drinks/drinks/coffee-tea-and-cocoa/creamers/3088/26434
/category/shop/food-and-drinks/dairy/pudding-dessert-and-gelatin/dessert/3064/3457
/category/shop/food-and-drinks/dairy/pudding-dessert-and-gelatin/pudding/3064/3458
/category/shop/food-and-drinks/dairy/pudding-dessert-and-gelatin/gelatin/3064/3459
/category/shop/food-and-drinks/dairy/dips-and-sour-cream/dips/3065/3460
/category/shop/food-and-drinks/dairy/dips-and-sour-cream/sour-cream/3065/3461
/category/shop/food-and-drinks/dairy/butter-and-margarine/butter/3066/3462
/category/shop/food-and-drinks/dairy/butter-and-margarine/margarine/3066/3463
/category/shop/food-and-drinks/dairy/eggs/egg-substitute/3067/3464
/category/shop/food-and-drinks/dairy/eggs/eggs/3067/3465
/category/shop/food-and-drinks/dairy/whipped-cream/2978/3068
/category/shop/food-and-drinks/frozen-food/ice-cream/tubs/3069/3466
/category/shop/food-and-drinks/frozen-food/ice-cream/ice-cream-bars/3069/3467
/category/shop/food-and-drinks/frozen-food/ice-cream/ice-cream-cones-and-toppings/3069/3468
/category/shop/food-and-drinks/frozen-food/ice-cream/freezer-pops/3069/3469
/category/shop/food-and-drinks/frozen-food/ice-cream/popsicles/3069/3470
/category/shop/food-and-drinks/frozen-food/ice-cream/sandwiches-cones-and-bars/3069/3471
/category/shop/food-and-drinks/frozen-food/desserts/cakes/3070/3472
/category/shop/food-and-drinks/frozen-food/desserts/pies/3070/3473
/category/shop/food-and-drinks/frozen-food/desserts/whipped-toppings/3070/3474
/category/shop/food-and-drinks/frozen-food/pizza/single-serve/3071/3475
/category/shop/food-and-drinks/frozen-food/pizza/multi-serve/3071/3476
/category/shop/food-and-drinks/frozen-food/meals/single-meals/3072/3477
/category/shop/food-and-drinks/frozen-food/meals/diet-meals/3072/3478
/category/shop/food-and-drinks/frozen-food/meals/children-s-meals/3072/3479
/category/shop/food-and-drinks/frozen-food/meals/family-size-meals/3072/3480
/category/shop/food-and-drinks/frozen-food/meals/meat-substitues/3072/3481
/category/shop/food-and-drinks/frozen-food/meals/pot-pies/3072/3482
/category/shop/food-and-drinks/frozen-food/meals/frozen-pasta/3072/3483
/category/shop/food-and-drinks/frozen-food/potatoes-fruit-and-vegetables/breakfast-potatoes/3073/3484
/category/shop/food-and-drinks/frozen-food/potatoes-fruit-and-vegetables/potato-sides-and-fries/3073/3485
/category/shop/food-and-drinks/frozen-food/potatoes-fruit-and-vegetables/rice-and-sides/3073/3486
/category/shop/food-and-drinks/frozen-food/potatoes-fruit-and-vegetables/fruit-and-smoothies/3073/26392
/category/shop/food-and-drinks/frozen-food/potatoes-fruit-and-vegetables/prepared-vegetables/3073/26393
/category/shop/food-and-drinks/frozen-food/potatoes-fruit-and-vegetables/vegetables/3073/26394
/category/shop/food-and-drinks/frozen-food/breakfast/waffles-and-pancakes/3074/3488
/category/shop/food-and-drinks/frozen-food/breakfast/breakfast-pastries/3074/3489
/category/shop/food-and-drinks/frozen-food/breakfast/breakfast-meals/3074/3490
/category/shop/food-and-drinks/frozen-food/breakfast/sandwiches/3074/3491
/category/shop/food-and-drinks/frozen-food/breakfast/sausages/3074/3492
/category/shop/food-and-drinks/frozen-food/frozen-meat-and-seafood/fully-cooked-meat/3075/3493
/category/shop/food-and-drinks/frozen-food/frozen-meat-and-seafood/frozen-poultry/3075/3495
/category/shop/food-and-drinks/frozen-food/appetizers/wings-and-nuggets/3076/3502
/category/shop/food-and-drinks/meat-and-seafood/seafood/frozen-seafood/3051/17841
/category/shop/food-and-drinks/meat-and-seafood/beef/burgers/3052/26395
/category/shop/food-and-drinks/frozen-food/appetizers/burritos/3076/3497
/category/shop/food-and-drinks/frozen-food/appetizers/corndogs/3076/3498
/category/shop/food-and-drinks/frozen-food/appetizers/sandwiches/3076/3499
/category/shop/food-and-drinks/frozen-food/appetizers/snacks/3076/3500
/category/shop/food-and-drinks/frozen-food/appetizers/taquitos/3076/3501
/category/shop/food-and-drinks/frozen-food/appetizers/wings-and-nuggets/3076/3502
/category/shop/food-and-drinks/frozen-food/bread/ready-to-bake-bread/3077/3503
/category/shop/food-and-drinks/frozen-food/bread/sandwich-bread/3077/3504
/category/shop/food-and-drinks/frozen-food/bread/dough/3077/3505
/category/shop/food-and-drinks/frozen-food/juice/100-juice/3078/3506
/category/shop/food-and-drinks/frozen-food/juice/juice-blends-and-mixers/3078/3507
/category/shop/food-and-drinks/frozen-food/ice/2979/3079
/category/shop/food-and-drinks/drinks/coffee-tea-and-cocoa/ready-to-drink-coffee-and-tea/3088/3093
/category/shop/food-and-drinks/drinks/coffee-tea-and-cocoa/single-cup-coffee-and-drinks/3088/26429
/category/shop/food-and-drinks/drinks/coffee-tea-and-cocoa/instant-coffee/3088/26430
/category/shop/food-and-drinks/drinks/coffee-tea-and-cocoa/bagged-and-canned-coffee/3088/26431
/category/shop/food-and-drinks/drinks/coffee-tea-and-cocoa/cocoa/3088/26432
/category/shop/food-and-drinks/drinks/coffee-tea-and-cocoa/tea/3088/26433
/category/shop/food-and-drinks/drinks/coffee-tea-and-cocoa/creamers/3088/26434
/category/shop/food-and-drinks/drinks/coffee-tea-and-cocoa/ready-to-drink-coffee-and-tea/3088/3093
/category/shop/food-and-drinks/drinks/sports-and-energy-drinks/2980/3094
/category/shop/food-and-drinks/drinks/juice/2980/3095
/category/shop/food-and-drinks/drinks/soft-drinks/2980/3096
/category/shop/food-and-drinks/drinks/water/2980/3097
/category/shop/food-and-drinks/drinks/powder-mixes-and-beverage-enhancers/2980/3098
/category/shop/food-and-drinks/drinks/milk-substitutes/2980/3099
/category/shop/food-and-drinks/drinks/weight-and-dietary-management/2980/3100
/category/shop/food-and-drinks/beer/drink-mixers/2981/3105
/category/shop/food-and-drinks/beer/import-beer/2981/3101
/category/shop/food-and-drinks/beer/microbrew/2981/3102
/category/shop/food-and-drinks/beer/domestic-beer/2981/3103
/category/shop/food-and-drinks/beer/malt-beverages-ciders-and-coolers/2981/3104
/category/shop/food-and-drinks/beer/drink-mixers/2981/3105
/category/shop/food-and-drinks/beer/seltzers/2981/3106
/category/shop/food-and-drinks/beer/non-alcoholic-beer/2981/3107
/category/shop/food-and-drinks/food-to-go-and-catering/party-trays/bakery-trays/3111/3619
/category/shop/food-and-drinks/food-to-go-and-catering/party-trays/fruit-and-vegetable-trays/3111/3621
/category/shop/food-and-drinks/food-to-go-and-catering/party-trays/meat-and-cheese-trays/3111/3623
/category/shop/food-and-drinks/food-to-go-and-catering/party-trays/sandwich-and-wrap-trays/3111/3624
/category/shop/food-and-drinks/food-to-go-and-catering/party-trays/shrimp-trays/3111/3625
/category/shop/food-and-drinks/food-to-go-and-catering/boxed-lunches/2982/410630
/category/shop/food-and-drinks/food-to-go-and-catering/bbq/2982/383331
/category/shop/food-and-drinks/food-to-go-and-catering/meal-simple/2982/407750
/category/shop/food-and-drinks/food-to-go-and-catering/soups-and-sandwiches/sandwiches/3109/3613
/category/shop/food-and-drinks/food-to-go-and-catering/soups-and-sandwiches/soups/3109/3614
/category/shop/food-and-drinks/food-to-go-and-catering/salads-and-sides/cafe-on-the-run/3110/3615
/category/shop/food-and-drinks/food-to-go-and-catering/salads-and-sides/salads/3110/3617
/category/shop/food-and-drinks/food-to-go-and-catering/salads-and-sides/sides/3110/3618
/category/shop/food-and-drinks/food-to-go-and-catering/hot-food-and-ready-meals/rotisserie/3112/3627
/category/shop/food-and-drinks/food-to-go-and-catering/hot-food-and-ready-meals/pizza/3112/3628
/category/shop/food-and-drinks/food-to-go-and-catering/hot-food-and-ready-meals/traditional-cafe/3112/3629
/category/shop/food-and-drinks/food-to-go-and-catering/hot-food-and-ready-meals/fried-chicken-and-wings/3112/3632
/category/shop/food-and-drinks/food-to-go-and-catering/hot-food-and-ready-meals/tamales/3112/3633
/category/shop/food-and-drinks/deli/desserts/2974/310839
/category/shop/health-and-beauty/makeup/face/foundation-and-tinted-moisturizer/3114/3648
/category/shop/health-and-beauty/makeup/face/concealer/3114/3649
/category/shop/health-and-beauty/makeup/face/face-powder/3114/3652
/category/shop/health-and-beauty/makeup/face/blush-and-bronzer/3114/25977
/category/shop/health-and-beauty/makeup/eyes/eye-liner/3115/3654
/category/shop/health-and-beauty/makeup/eyes/eye-shadow/3115/3655
/category/shop/health-and-beauty/makeup/eyes/eyebrow-products/3115/3656
/category/shop/health-and-beauty/makeup/eyes/mascara/3115/3657
/category/shop/health-and-beauty/makeup/eyes/eye-lashes/3115/25978
/category/shop/health-and-beauty/personal-care/skin-care/face/lip-balm-and-treatments/3125/3658
/category/shop/health-and-beauty/makeup/lips/lip-gloss/3116/3659
/category/shop/health-and-beauty/makeup/lips/lip-liner/3116/3660
/category/shop/health-and-beauty/makeup/lips/lip-stick/3116/3661
/category/shop/health-and-beauty/makeup/makeup-tools-and-accessories/brushes-and-applicators/25974/25973
/category/shop/health-and-beauty/makeup/makeup-tools-and-accessories/makeup-remover/25974/25979
/category/shop/health-and-beauty/makeup/makeup-tools-and-accessories/makeup-bags-and-organizers/25974/25980
/category/shop/health-and-beauty/home-health-care/health-care-supplies/cotton-balls-and-swabs/26227/25981
/category/shop/health-and-beauty/makeup/makeup-tools-and-accessories/brow-and-lash-tools/25974/299327
/category/shop/health-and-beauty/makeup/makeup-tools-and-accessories/mirror-shear-and-trimmer/25974/299329
/category/shop/health-and-beauty/makeup/kids-makeup/2983/25976
/category/shop/health-and-beauty/home-health-care/health-care-supplies/cotton-balls-and-swabs/26227/25981
/category/shop/health-and-beauty/personal-care/skin-care/face/25985/3125
/category/shop/health-and-beauty/personal-care/skin-care/bath-and-body/25985/25986
/category/shop/health-and-beauty/personal-care/skin-care/acne/25985/25987
/category/shop/health-and-beauty/personal-care/skin-care/ethnic-skin-care/25985/25988
/category/shop/health-and-beauty/personal-care/men-s-care/men-s-skin-care/26044/26090
/category/shop/health-and-beauty/medicine-cabinet/skin-and-scalp-treatments/anti-itch/26160/26210
/category/shop/health-and-beauty/medicine-cabinet/skin-and-scalp-treatments/afterburn-and-scar/26160/26211
/category/shop/health-and-beauty/medicine-cabinet/skin-and-scalp-treatments/jock-itch-care/26160/26212
/category/shop/health-and-beauty/medicine-cabinet/foot-and-leg-care/wart-remover/26155/26213
/category/shop/health-and-beauty/medicine-cabinet/skin-and-scalp-treatments/lice-treatment/26160/26214
/category/shop/health-and-beauty/home-health-care/health-care-supplies/petroleum-jelly/26227/26244
/category/shop/health-and-beauty/personal-care/skin-care/tissue-wipes-and-towelettes/25985/307491
/category/shop/health-and-beauty/personal-care/hair/shampoo/25997/25998
/category/shop/health-and-beauty/personal-care/hair/conditioner/25997/25999
/category/shop/health-and-beauty/personal-care/hair/hair-spray-gel-and-mousse/25997/26003
/category/shop/health-and-beauty/personal-care/hair/hair-treatments/25997/26009
/category/shop/health-and-beauty/personal-care/hair/ethnic-hair-care/25997/26010
/category/shop/health-and-beauty/personal-care/men-s-care/men-s-hair-care-and-color/26044/26017
/category/shop/health-and-beauty/personal-care/hair/hair-dryer-straightener-and-curling-iron/25997/26018
/category/shop/health-and-beauty/personal-care/hair/hair-accessories/25997/26024
/category/shop/health-and-beauty/personal-care/hair/mirror-shear-and-trimmer/25997/26426
/category/shop/health-and-beauty/personal-care/hair/hair-color/25997/26428
/category/shop/health-and-beauty/personal-care/nails/artificial-nails/26035/3138
/category/shop/health-and-beauty/personal-care/nails/nail-polish/26035/3139
/category/shop/health-and-beauty/personal-care/nails/nail-polish-remover/26035/3140
/category/shop/health-and-beauty/personal-care/nails/nail-treatments/26035/26036
/category/shop/health-and-beauty/personal-care/nails/manicure-sets-and-accessories/26035/26037
/category/shop/health-and-beauty/personal-care/oral-care/toothbrush/26038/26047
/category/shop/health-and-beauty/personal-care/oral-care/electric-and-power-toothbrush/26038/26048
/category/shop/health-and-beauty/personal-care/oral-care/toothpaste/26038/26049
/category/shop/health-and-beauty/personal-care/oral-care/mouthrinse-and-breath-freshener/26038/26050
/category/shop/health-and-beauty/personal-care/oral-care/dental-floss-and-oral-tools/26038/26051
/category/shop/health-and-beauty/personal-care/oral-care/whitening-kits/26038/26052
/category/shop/health-and-beauty/personal-care/oral-care/dentures/26038/26053
/category/shop/health-and-beauty/personal-care/oral-care/kids-oral-care/26038/26054
/category/shop/health-and-beauty/personal-care/sunscreen-and-self-tanning/2985/26039
/category/shop/health-and-beauty/personal-care/men-s-care/after-shave/26044/26064
/category/shop/health-and-beauty/personal-care/men-s-care/electric-shaver-and-trimmer/26044/26065
/category/shop/health-and-beauty/personal-care/men-s-care/hair-removal/26044/26066
/category/shop/health-and-beauty/personal-care/men-s-care/razor-and-blades/26044/26067
/category/shop/health-and-beauty/personal-care/men-s-care/disposable-razor/26044/26068
/category/shop/health-and-beauty/personal-care/men-s-care/shave-gel-and-cream/26044/26069
/category/shop/health-and-beauty/personal-care/deodorant-and-antiperspirant/antiperspirant-stick/26041/26070
/category/shop/health-and-beauty/personal-care/deodorant-and-antiperspirant/deodorant-stick/26041/26071
/category/shop/health-and-beauty/personal-care/deodorant-and-antiperspirant/roll-on/26041/26072
/category/shop/health-and-beauty/personal-care/deodorant-and-antiperspirant/gel/26041/26073
/category/shop/health-and-beauty/personal-care/deodorant-and-antiperspirant/spray/26041/26074
/category/shop/health-and-beauty/personal-care/deodorant-and-antiperspirant/clinical/26041/26075
/category/shop/health-and-beauty/personal-care/men-s-care/men-s-hair-care-and-color/26044/26017
/category/shop/health-and-beauty/personal-care/men-s-care/after-shave/26044/26064
/category/shop/health-and-beauty/personal-care/men-s-care/electric-shaver-and-trimmer/26044/26065
/category/shop/health-and-beauty/personal-care/men-s-care/hair-removal/26044/26066
/category/shop/health-and-beauty/personal-care/men-s-care/razor-and-blades/26044/26067
/category/shop/health-and-beauty/personal-care/men-s-care/disposable-razor/26044/26068
/category/shop/health-and-beauty/personal-care/men-s-care/shave-gel-and-cream/26044/26069
/category/shop/health-and-beauty/personal-care/men-s-care/men-s-skin-care/26044/26090
/category/shop/health-and-beauty/personal-care/trial-and-travel-size/deodorant/26046/26093
/category/shop/health-and-beauty/personal-care/trial-and-travel-size/shampoo-and-conditioner/26046/26094
/category/shop/health-and-beauty/personal-care/trial-and-travel-size/oral-care/26046/26095
/category/shop/health-and-beauty/personal-care/trial-and-travel-size/skin-care/26046/26096
/category/shop/health-and-beauty/personal-care/trial-and-travel-size/hair-styling/26046/299715
/category/shop/health-and-beauty/personal-care/trial-and-travel-size/shaving-and-grooming/26046/299716
/category/shop/health-and-beauty/personal-care/trial-and-travel-size/tissue-wipes-and-towelettes/26046/299718
/category/shop/health-and-beauty/personal-care/trial-and-travel-size/laundry/26046/299719
/category/shop/health-and-beauty/personal-care/trial-and-travel-size/travel-accessories/26046/299720
/category/shop/health-and-beauty/personal-care/skin-care/face/lip-balm-and-treatments/3125/3658
/category/shop/health-and-beauty/medicine-cabinet/ear-eye-and-lip-care/allergy-and-decongestant-eye-drop/26153/26176
/category/shop/health-and-beauty/medicine-cabinet/ear-eye-and-lip-care/moisture-and-artificial-tear-drop/26153/26177
/category/shop/health-and-beauty/medicine-cabinet/ear-eye-and-lip-care/ear-medicine/26153/26178
/category/shop/health-and-beauty/medicine-cabinet/ear-eye-and-lip-care/contact-lens-care-and-accessories/26153/26179
/category/shop/health-and-beauty/medicine-cabinet/ear-eye-and-lip-care/ear-and-eye-accessories/26153/26180
/category/shop/health-and-beauty/medicine-cabinet/ear-eye-and-lip-care/eye-wash/26153/299721
/category/shop/health-and-beauty/medicine-cabinet/feminine-care/pads-and-liners/26154/26181
/category/shop/health-and-beauty/medicine-cabinet/feminine-care/tampons/26154/26182
/category/shop/health-and-beauty/medicine-cabinet/feminine-care/wipes-and-cleansers/26154/26183
/category/shop/health-and-beauty/medicine-cabinet/feminine-care/treatments/26154/26184
/category/shop/health-and-beauty/medicine-cabinet/foot-and-leg-care/athlete-s-foot/26155/26185
/category/shop/health-and-beauty/medicine-cabinet/foot-and-leg-care/foot-odor-and-wetness/26155/26186
/category/shop/health-and-beauty/medicine-cabinet/foot-and-leg-care/foot-soak-and-balm/26155/26187
/category/shop/health-and-beauty/medicine-cabinet/foot-and-leg-care/foot-care-devices-and-grooming-aids/26155/26188
/category/shop/health-and-beauty/medicine-cabinet/foot-and-leg-care/foot-care-insoles/26155/26189
/category/shop/health-and-beauty/medicine-cabinet/foot-and-leg-care/support-hosiery/26155/26191
/category/shop/health-and-beauty/medicine-cabinet/foot-and-leg-care/wart-remover/26155/26213
/category/shop/health-and-beauty/medicine-cabinet/foot-and-leg-care/corn-and-callous/26155/299722
/category/shop/health-and-beauty/home-health-care/incontinence/pads-and-liners/26222/26228
/category/shop/health-and-beauty/home-health-care/incontinence/briefs-and-underwear/26222/26229
/category/shop/health-and-beauty/home-health-care/incontinence/guards-for-men/26222/26230
/category/shop/health-and-beauty/home-health-care/incontinence/incontinence-care/26222/26231
/category/shop/health-and-beauty/personal-care/hair/mirror-shear-and-trimmer/25997/26426
/category/shop/health-and-beauty/home-health-care/health-care-supplies/cotton-balls-and-swabs/26227/25981
/category/shop/health-and-beauty/medicine-cabinet/skin-and-scalp-treatments/anti-itch/26160/26210
/category/shop/health-and-beauty/first-aid/adhesive-bandage/26147/26235
/category/shop/health-and-beauty/first-aid/tape-gauze-and-wraps/wound-and-skin-care/26236/26246
/category/shop/health-and-beauty/first-aid/tape-gauze-and-wraps/sports-injury-and-supports/26236/26247
/category/shop/health-and-beauty/first-aid/antibiotic/26147/26237
/category/shop/health-and-beauty/first-aid/antiseptic/26147/26238
/category/shop/health-and-beauty/first-aid/afterburn/26147/26240
/category/shop/health-and-beauty/first-aid/skin-and-scar/26147/26241
/category/shop/health-and-beauty/first-aid/lice-treatments/26147/26242
/category/shop/health-and-beauty/first-aid/first-aid-kit-and-supplies/26147/26243
/category/shop/health-and-beauty/home-health-care/health-care-supplies/petroleum-jelly/26227/26244
/category/shop/health-and-beauty/diet-fitness-and-nutrition/vitamins/multivitamin/26097/26104
/category/shop/health-and-beauty/diet-fitness-and-nutrition/vitamins/vitamin-a-e/26097/26105
/category/shop/health-and-beauty/diet-fitness-and-nutrition/vitamins/calcium-and-minerals/26097/26106
/category/shop/health-and-beauty/diet-fitness-and-nutrition/vitamins/supplements/26097/26107
/category/shop/health-and-beauty/diet-fitness-and-nutrition/weight-loss/weight-loss-supplements/26098/26132
/category/shop/health-and-beauty/diet-fitness-and-nutrition/weight-loss/drinks-and-powder-shakes/26098/26133
/category/shop/health-and-beauty/diet-fitness-and-nutrition/weight-loss/fat-burner-and-thermogenics/26098/299751
/category/shop/health-and-beauty/diet-fitness-and-nutrition/weight-loss/diet-bars/26098/304523
/category/shop/health-and-beauty/diet-fitness-and-nutrition/sports-nutrition/amino-acid/26134/26136
/category/shop/health-and-beauty/diet-fitness-and-nutrition/sports-nutrition/creatine/26134/26138
/category/shop/health-and-beauty/diet-fitness-and-nutrition/sports-nutrition/fat-burner/26134/26139
/category/shop/health-and-beauty/diet-fitness-and-nutrition/sports-nutrition/sports-nutrition-bars/26134/26140
/category/shop/health-and-beauty/diet-fitness-and-nutrition/sports-nutrition/protein/26134/26141
/category/shop/health-and-beauty/diet-fitness-and-nutrition/sports-nutrition/performance-supplements/26134/26143
/category/shop/health-and-beauty/diet-fitness-and-nutrition/sports-nutrition/sports-drinks/26134/26427
/category/shop/health-and-beauty/diet-fitness-and-nutrition/sports-nutrition/shaker-cups/26134/299752
/category/shop/health-and-beauty/diet-fitness-and-nutrition/fitness-scales-and-monitors/26099/26256
/category/shop/health-and-beauty/diet-fitness-and-nutrition/bars/diet-bars/299745/299746
/category/shop/health-and-beauty/diet-fitness-and-nutrition/bars/sports-nutrition-bars/299745/299747
/category/shop/health-and-beauty/diet-fitness-and-nutrition/sports-nutrition/protein/26134/26141
/category/shop/health-and-beauty/diet-fitness-and-nutrition/sports-nutrition/sports-drinks/26134/26427
/category/shop/health-and-beauty/diet-fitness-and-nutrition/drinks-and-shakes/nutritional/299748/299756
/category/shop/health-and-beauty/diet-fitness-and-nutrition/drinks-and-shakes/shaker-cups/299748/299757
/category/shop/health-and-beauty/diet-fitness-and-nutrition/drinks-and-shakes/weight-management/299748/299857
/category/shop/health-and-beauty/home-health-care/diabetes-management/diabetes-supplements/26223/26248
/category/shop/health-and-beauty/home-health-care/diabetes-management/diabetic-food-and-drinks/26223/299730
/category/shop/health-and-beauty/diet-fitness-and-nutrition/food-and-snacks/26099/304543
/category/shop/health-and-beauty/diet-fitness-and-nutrition/fitness-gear/26099/350687
/category/shop/health-and-beauty/medicine-cabinet/allergy-sinus-and-asthma/allergy-medicine-and-antihistamine/26149/26162
/category/shop/health-and-beauty/medicine-cabinet/allergy-sinus-and-asthma/kids-allergy/26149/26163
/category/shop/health-and-beauty/medicine-cabinet/allergy-sinus-and-asthma/sinus-medicine/26149/26164
/category/shop/health-and-beauty/medicine-cabinet/allergy-sinus-and-asthma/asthma-medicine/26149/26165
/category/shop/health-and-beauty/medicine-cabinet/allergy-sinus-and-asthma/nasal-spray-strip-and-inhaler/26149/26166
/category/shop/health-and-beauty/medicine-cabinet/cough-cold-and-flu/cold-medicine/26151/26168
/category/shop/health-and-beauty/medicine-cabinet/cough-cold-and-flu/kids-cold-medicine/26151/26169
/category/shop/health-and-beauty/medicine-cabinet/cough-cold-and-flu/cough-drop-lozenge-and-throat-spray/26151/26170
/category/shop/health-and-beauty/medicine-cabinet/cough-cold-and-flu/homeopathic-cold-and-flu-remedy/26151/26171
/category/shop/health-and-beauty/medicine-cabinet/constipation-diarrhea-and-enema/diarrhea/26152/26172
/category/shop/health-and-beauty/medicine-cabinet/constipation-diarrhea-and-enema/enema/26152/26173
/category/shop/health-and-beauty/medicine-cabinet/constipation-diarrhea-and-enema/fiber/26152/26174
/category/shop/health-and-beauty/medicine-cabinet/constipation-diarrhea-and-enema/laxative/26152/26175
/category/shop/health-and-beauty/personal-care/skin-care/face/lip-balm-and-treatments/3125/3658
/category/shop/health-and-beauty/medicine-cabinet/ear-eye-and-lip-care/allergy-and-decongestant-eye-drop/26153/26176
/category/shop/health-and-beauty/medicine-cabinet/ear-eye-and-lip-care/moisture-and-artificial-tear-drop/26153/26177
/category/shop/health-and-beauty/medicine-cabinet/ear-eye-and-lip-care/ear-medicine/26153/26178
/category/shop/health-and-beauty/medicine-cabinet/ear-eye-and-lip-care/contact-lens-care-and-accessories/26153/26179
/category/shop/health-and-beauty/medicine-cabinet/ear-eye-and-lip-care/ear-and-eye-accessories/26153/26180
/category/shop/health-and-beauty/medicine-cabinet/ear-eye-and-lip-care/eye-wash/26153/299721
/category/shop/health-and-beauty/medicine-cabinet/feminine-care/pads-and-liners/26154/26181
/category/shop/health-and-beauty/medicine-cabinet/feminine-care/tampons/26154/26182
/category/shop/health-and-beauty/medicine-cabinet/feminine-care/wipes-and-cleansers/26154/26183
/category/shop/health-and-beauty/medicine-cabinet/feminine-care/treatments/26154/26184
/category/shop/health-and-beauty/medicine-cabinet/foot-and-leg-care/athlete-s-foot/26155/26185
/category/shop/health-and-beauty/medicine-cabinet/foot-and-leg-care/foot-odor-and-wetness/26155/26186
/category/shop/health-and-beauty/medicine-cabinet/foot-and-leg-care/foot-soak-and-balm/26155/26187
/category/shop/health-and-beauty/medicine-cabinet/foot-and-leg-care/foot-care-devices-and-grooming-aids/26155/26188
/category/shop/health-and-beauty/medicine-cabinet/foot-and-leg-care/foot-care-insoles/26155/26189
/category/shop/health-and-beauty/medicine-cabinet/foot-and-leg-care/support-hosiery/26155/26191
/category/shop/health-and-beauty/medicine-cabinet/foot-and-leg-care/wart-remover/26155/26213
/category/shop/health-and-beauty/medicine-cabinet/foot-and-leg-care/corn-and-callous/26155/299722
/category/shop/health-and-beauty/medicine-cabinet/gas-bloating-and-digestion/antacid-and-acid-reduction/26156/26192
/category/shop/health-and-beauty/medicine-cabinet/gas-bloating-and-digestion/anti-gas-and-bloating/26156/26193
/category/shop/health-and-beauty/medicine-cabinet/gas-bloating-and-digestion/digestive-cleanser/26156/26194
/category/shop/health-and-beauty/medicine-cabinet/gas-bloating-and-digestion/lactose-intolerance/26156/26195
/category/shop/health-and-beauty/medicine-cabinet/gas-bloating-and-digestion/probiotic/26156/26196
/category/shop/health-and-beauty/medicine-cabinet/hemorrhoids/hemorrhoid-pads-and-suppository/26157/26207
/category/shop/health-and-beauty/medicine-cabinet/hemorrhoids/hemorrhoid-cream-and-ointment/26157/26208
/category/shop/health-and-beauty/medicine-cabinet/motion-sickness-and-nausea/26144/26158
/category/shop/health-and-beauty/medicine-cabinet/pain-relief/all-purpose-pain-relief/26159/26197
/category/shop/health-and-beauty/medicine-cabinet/pain-relief/anti-inflammatory/26159/26198
/category/shop/health-and-beauty/medicine-cabinet/pain-relief/topical-and-muscular/26159/26215
/category/shop/health-and-beauty/medicine-cabinet/pain-relief/topical-oral-pain-relief/26159/26216
/category/shop/health-and-beauty/medicine-cabinet/pain-relief/menstrual-pain-relief/26159/26217
/category/shop/health-and-beauty/medicine-cabinet/pain-relief/urinary-pain-relief/26159/26218
/category/shop/health-and-beauty/medicine-cabinet/pain-relief/kids-pain-relief/26159/26219
/category/shop/health-and-beauty/medicine-cabinet/skin-and-scalp-treatments/anti-itch/26160/26210
/category/shop/health-and-beauty/medicine-cabinet/skin-and-scalp-treatments/afterburn-and-scar/26160/26211
/category/shop/health-and-beauty/medicine-cabinet/skin-and-scalp-treatments/jock-itch-care/26160/26212
/category/shop/health-and-beauty/medicine-cabinet/foot-and-leg-care/wart-remover/26155/26213
/category/shop/health-and-beauty/medicine-cabinet/skin-and-scalp-treatments/lice-treatment/26160/26214
/category/shop/health-and-beauty/home-health-care/health-care-supplies/petroleum-jelly/26227/26244
/category/shop/health-and-beauty/fragrance/women-s-fragrance/2984/3120
/category/shop/health-and-beauty/fragrance/men-s-fragrance/2984/3121
/category/shop/health-and-beauty/fragrance/body-sprays/2984/3122
/category/shop/health-and-beauty/fragrance/gift-sets/2984/390376
/category/shop/health-and-beauty/natural-and-organic/vitamin-and-supplements/vitamin-a-e/26262/26269
/category/shop/health-and-beauty/natural-and-organic/vitamin-and-supplements/calcium-and-minerals/26262/26270
/category/shop/health-and-beauty/natural-and-organic/vitamin-and-supplements/supplements/26262/26271
/category/shop/health-and-beauty/natural-and-organic/vitamin-and-supplements/homeopathic/26262/26274
/category/shop/health-and-beauty/natural-and-organic/vitamin-and-supplements/multivitamin/26262/26275
/category/shop/health-and-beauty/natural-and-organic/vitamin-and-supplements/flower-essense/26262/26296
/category/shop/health-and-beauty/natural-and-organic/vitamin-and-supplements/browse-by-health-conditions/26262/26297
/category/shop/health-and-beauty/natural-and-organic/vitamin-and-supplements/women-s-formula/26262/26333
/category/shop/health-and-beauty/natural-and-organic/vitamin-and-supplements/men-s-formula/26262/26334
/category/shop/health-and-beauty/natural-and-organic/vitamin-and-supplements/baby-and-kids/26262/26335
/category/shop/health-and-beauty/natural-and-organic/vitamin-and-supplements/herbal-supplements/26262/299739
/category/shop/health-and-beauty/natural-and-organic/personal-care/skin-care/26265/26298
/category/shop/health-and-beauty/natural-and-organic/personal-care/bath-and-shower/26265/26299
/category/shop/health-and-beauty/natural-and-organic/personal-care/deodorant/26265/26300
/category/shop/health-and-beauty/natural-and-organic/personal-care/hair/26265/26301
/category/shop/health-and-beauty/natural-and-organic/personal-care/oral-care/26265/26302
/category/shop/health-and-beauty/natural-and-organic/personal-care/sunscreen/26265/26303
/category/shop/health-and-beauty/natural-and-organic/personal-care/insect-repellant/26265/26304
/category/shop/health-and-beauty/natural-and-organic/personal-care/feminine-care/26265/299733
/category/shop/health-and-beauty/natural-and-organic/personal-care/shaving-and-grooming/26265/299734
/category/shop/health-and-beauty/natural-and-organic/personal-care/men-s-care/26265/299735
/category/shop/health-and-beauty/natural-and-organic/fragrance-and-essential-oils/26148/26266
/category/shop/health-and-beauty/natural-and-organic/nutritional-bars/26148/26267
/category/shop/health-and-beauty/natural-and-organic/candles-and-incense/26148/299736
/category/shop/health-and-beauty/home-health-care/incontinence/pads-and-liners/26222/26228
/category/shop/health-and-beauty/home-health-care/incontinence/briefs-and-underwear/26222/26229
/category/shop/health-and-beauty/home-health-care/incontinence/guards-for-men/26222/26230
/category/shop/health-and-beauty/home-health-care/incontinence/incontinence-care/26222/26231
/category/shop/health-and-beauty/home-health-care/diabetes-management/diabetes-supplements/26223/26248
/category/shop/health-and-beauty/home-health-care/diabetes-management/diabetes-supplies/26223/26249
/category/shop/health-and-beauty/home-health-care/diabetes-management/personal-care/26223/26251
/category/shop/health-and-beauty/home-health-care/diabetes-management/glucose-monitor/26223/26254
/category/shop/health-and-beauty/home-health-care/diabetes-management/diabetic-food-and-drinks/26223/299730
/category/shop/health-and-beauty/home-health-care/home-health-appliances/massage-appliances/26224/26252
/category/shop/health-and-beauty/home-health-care/home-health-appliances/vaporizer-and-humidifier/26224/26253
/category/shop/health-and-beauty/home-health-care/diabetes-management/glucose-monitor/26223/26254
/category/shop/health-and-beauty/home-health-care/monitors-and-scales/blood-pressure-monitor/26225/26255
/category/shop/health-and-beauty/diet-fitness-and-nutrition/fitness-scales-and-monitors/26099/26256
/category/shop/health-and-beauty/home-health-care/canes-crutches-and-support/26145/26226
/category/shop/health-and-beauty/home-health-care/health-care-supplies/cotton-balls-and-swabs/26227/25981
/category/shop/health-and-beauty/home-health-care/health-care-supplies/petroleum-jelly/26227/26244
/category/shop/health-and-beauty/home-health-care/health-care-supplies/pill-organizers-cutter-and-dosage-aids/26227/26257
/category/shop/health-and-beauty/home-health-care/health-care-supplies/thermometer/26227/26258
/category/shop/health-and-beauty/home-health-care/health-care-supplies/heating-pad/26227/26261
/category/shop/health-and-beauty/sexual-wellness/condom-and-contraceptives/26146/26232
/category/shop/health-and-beauty/sexual-wellness/personal-lubricants/26146/26233
/category/shop/health-and-beauty/sexual-wellness/pregnancy-and-ovulation-tests/26146/26234
/category/shop/health-and-beauty/smoking-cessation//26209
/category/shop/health-and-beauty/beauty-clearance//397454
/category/shop/flowers/roses/2868/2941
/category/shop/flowers/all-occasions/anniversary/2943/299830
/category/shop/flowers/all-occasions/baby/2943/299831
/category/shop/flowers/all-occasions/birthday/2943/299832
/category/shop/flowers/all-occasions/get-well/2943/299835
/category/shop/flowers/all-occasions/graduation/2943/299843
/category/shop/flowers/all-occasions/just-because/2943/299834
/category/shop/flowers/all-occasions/sympathy/2943/299833
/category/shop/flowers/delivery/2868/378497
/category/shop/flowers/balloons/2868/294819
/category/shop/flowers/fresh-flowers/2868/2939
/category/shop/flowers/gift-fruit-baskets/2868/2942
/category/shop/flowers/plants/2868/295677
/category/shop/flowers/corsages/2868/2940
/category/shop/entertainment-and-electronics/books/fiction/2891/2892
/category/shop/entertainment-and-electronics/books/cookbooks/2891/2893
/category/shop/entertainment-and-electronics/books/kid-books/2891/2895
/category/shop/entertainment-and-electronics/books/e-reader-accessories/2891/2898
/category/shop/entertainment-and-electronics/books/non-fiction/2891/2899
/category/shop/entertainment-and-electronics/computers-and-tablets/notebooks-and-tablets/2900/2901
/category/shop/entertainment-and-electronics/computers-and-tablets/accessories-and-storage/2900/2902
/category/shop/entertainment-and-electronics/computers-and-tablets/printers-and-ink/2900/2903
/category/shop/entertainment-and-electronics/video-games-and-gaming-systems/xbox/2904/2906
/category/shop/entertainment-and-electronics/video-games-and-gaming-systems/playstation/2904/2907
/category/shop/entertainment-and-electronics/video-games-and-gaming-systems/nintendo/2904/2908
/category/shop/entertainment-and-electronics/phones-and-cameras/iphone/2929/2930
/category/shop/entertainment-and-electronics/phones-and-cameras/android/2929/2931
/category/shop/entertainment-and-electronics/phones-and-cameras/other-phones/2929/2932
/category/shop/entertainment-and-electronics/phones-and-cameras/landline/2929/2933
/category/shop/entertainment-and-electronics/phones-and-cameras/prepaid/2929/2934
/category/shop/entertainment-and-electronics/phones-and-cameras/cameras/2929/2935
/category/shop/entertainment-and-electronics/tv-and-home-theater/tv-accessories/2936/2937
/category/shop/entertainment-and-electronics/tv-and-home-theater/dvd-players-and-home-theater/2936/2938
/category/shop/entertainment-and-electronics/tv-and-home-theater/televisions/2936/375781
/category/shop/entertainment-and-electronics/batteries//3218
/category/shop/pet/dog/dog-food/3014/414137
/category/shop/pet/dog/dog-treats/3014/3156
/category/shop/pet/dog/dog-wellness/3014/3157
/category/shop/pet/dog/dog-toys/3014/3158
/category/shop/pet/dog/dog-beds-and-carriers/3014/413270
/category/shop/pet/dog/dog-bowls/3014/413271
/category/shop/pet/dog/dog-shampoo-and-grooming/3014/413272
/category/shop/pet/dog/dog-collars-and-leashes/3014/413273
/category/shop/pet/cat/cat-food/3015/414140
/category/shop/pet/cat/cat-litter/3015/3161
/category/shop/pet/cat/cat-wellness/3015/3162
/category/shop/pet/cat/cat-treats/3015/3163
/category/shop/pet/cat/cat-supplies/3015/342257
/category/shop/pet/cat/cat-toys/3015/378093
/category/shop/pet/bird-and-small-pet/bird-food-domestic/3016/3164
/category/shop/pet/bird-and-small-pet/bird-food-wild/3016/3165
/category/shop/pet/bird-and-small-pet/small-pet-food-and-supplies/3016/3166
/category/shop/home-and-kitchen/back-to-campus/appliances/coffee-makers/407258/407259
/category/shop/home-and-kitchen/back-to-campus/appliances/blenders/407258/407260
/category/shop/home-and-kitchen/back-to-campus/appliances/small-appliances/407258/407261
/category/shop/home-and-kitchen/back-to-campus/apparel/407257/407270
/category/shop/home-and-kitchen/back-to-campus/kitchen/tabletop/407281/407294
/category/shop/home-and-kitchen/back-to-campus/kitchen/kitchen-gadgets/407281/407297
/category/shop/home-and-kitchen/back-to-campus/kitchen/cookware/407281/407299
/category/shop/home-and-kitchen/back-to-campus/kitchen/bakeware/407281/407300
/category/shop/home-and-kitchen/back-to-campus/kitchen/food-storage/407281/407301
/category/shop/home-and-kitchen/back-to-campus/kitchen/water-filtration/407281/407302
/category/shop/home-and-kitchen/back-to-campus/kitchen/essentials/407281/411668
/category/shop/home-and-kitchen/back-to-campus/closet-moving/storage-organization/407284/407286
/category/shop/home-and-kitchen/back-to-campus/closet-moving/closet-organization/407284/407288
/category/shop/home-and-kitchen/back-to-campus/closet-moving/dorm-room-essentials/407284/407292
/category/shop/home-and-kitchen/back-to-campus/electronics/phone-accessories/407310/407311
/category/shop/home-and-kitchen/back-to-campus/electronics/televisions/407310/407314
/category/shop/home-and-kitchen/back-to-campus/domestics/bed/407317/407319
/category/shop/home-and-kitchen/back-to-campus/domestics/bath/407317/407321
/category/shop/home-and-kitchen/back-to-campus/health-beauty/medicine-cabinet/407326/407335
/category/shop/home-and-kitchen/back-to-campus/health-beauty/first-aid/407326/407337
/category/shop/home-and-kitchen/back-to-campus/health-beauty/personal-care/407326/407338
/category/shop/home-and-kitchen/back-to-campus/food-storage/407257/417192
/category/shop/home-and-kitchen/appliances/coffee-makers/2994/3185
/category/shop/home-and-kitchen/appliances/blenders-and-mixers/2994/3186
/category/shop/home-and-kitchen/appliances/toasters/2994/3188
/category/shop/home-and-kitchen/appliances/cookers/2994/3187
/category/shop/home-and-kitchen/appliances/fans-heaters-and-a-c/2994/3189
/category/shop/home-and-kitchen/appliances/irons-and-vacuums/2994/3191
/category/shop/home-and-kitchen/appliances/slow-cookers/2994/393733
/category/shop/home-and-kitchen/appliances/electric-grills/2994/407947
/category/shop/home-and-kitchen/air-and-water-filters/water-filters/2995/3193
/category/shop/home-and-kitchen/laundry-and-household/cleaners/all-purpose/3209/3776
/category/shop/home-and-kitchen/laundry-and-household/cleaners/bathroom-and-drains/3209/3777
/category/shop/home-and-kitchen/laundry-and-household/cleaners/furniture-and-floor/3209/3778
/category/shop/home-and-kitchen/laundry-and-household/cleaners/glass/3209/3779
/category/shop/home-and-kitchen/laundry-and-household/cleaners/metal-and-appliance/3209/3780
/category/shop/home-and-kitchen/laundry-and-household/cleaners/toilet-care/3209/3781
/category/shop/home-and-kitchen/laundry-and-household/laundry/bleach/3210/3782
/category/shop/home-and-kitchen/laundry-and-household/laundry/pre-wash/3210/3783
/category/shop/home-and-kitchen/laundry-and-household/laundry/softener/3210/3784
/category/shop/home-and-kitchen/laundry-and-household/laundry/detergent/3210/3785
/category/shop/home-and-kitchen/laundry-and-household/laundry/starch/3210/3786
/category/shop/home-and-kitchen/laundry-and-household/laundry/closet-organization/3210/308605
/category/shop/home-and-kitchen/laundry-and-household/food-storage-and-foil/containers/3205/3766
/category/shop/home-and-kitchen/laundry-and-household/food-storage-and-foil/foil-and-baking-paper/3205/3767
/category/shop/home-and-kitchen/laundry-and-household/food-storage-and-foil/storage-bags/3205/3768
/category/shop/home-and-kitchen/laundry-and-household/trash-bags/kitchen-trash-bags/3206/3769
/category/shop/home-and-kitchen/laundry-and-household/trash-bags/large-and-outdoor-bags/3206/3770
/category/shop/home-and-kitchen/laundry-and-household/dish-care/auto-dish-care/3207/3771
/category/shop/home-and-kitchen/laundry-and-household/dish-care/liquid-dish-care/3207/3772
/category/shop/home-and-kitchen/laundry-and-household/air-fresheners/candles-and-incense/3208/3773
/category/shop/home-and-kitchen/laundry-and-household/air-fresheners/plug-ins/3208/3774
/category/shop/home-and-kitchen/laundry-and-household/air-fresheners/sprays-and-powders/3208/3775
/category/shop/home-and-kitchen/laundry-and-household/air-fresheners/religious-candles/3208/308640
/category/shop/home-and-kitchen/laundry-and-household/cleaning-supplies/2998/300022
/category/shop/home-and-kitchen/laundry-and-household/hardware/2998/3201
/category/shop/home-and-kitchen/laundry-and-household/electrical/2998/3202
/category/shop/home-and-kitchen/laundry-and-household/food-storage-and-foil/containers/3205/3766
/category/shop/home-and-kitchen/laundry-and-household/food-storage-and-foil/foil-and-baking-paper/3205/3767
/category/shop/home-and-kitchen/laundry-and-household/food-storage-and-foil/storage-bags/3205/3768
/category/shop/home-and-kitchen/laundry-and-household/trash-bags/kitchen-trash-bags/3206/3769
/category/shop/home-and-kitchen/laundry-and-household/trash-bags/large-and-outdoor-bags/3206/3770
/category/shop/home-and-kitchen/paper-and-plastic-goods/bath-tissue/2999/3211
/category/shop/home-and-kitchen/paper-and-plastic-goods/cups/2999/3212
/category/shop/home-and-kitchen/paper-and-plastic-goods/napkins-and-tablecovers/2999/3213
/category/shop/home-and-kitchen/paper-and-plastic-goods/facial-tissue/2999/3214
/category/shop/home-and-kitchen/paper-and-plastic-goods/paper-towels/2999/3215
/category/shop/home-and-kitchen/paper-and-plastic-goods/disposable-tableware/2999/3216
/category/shop/home-and-kitchen/paper-and-plastic-goods/utensils/2999/3217
/category/shop/home-and-kitchen/tabletop-and-bar/dishes/2993/3181
/category/shop/home-and-kitchen/kitchen-tools/flatware-and-cutlery/2992/3182
/category/shop/home-and-kitchen/tabletop-and-bar/drinkware/barware/3183/3184
/category/shop/home-and-kitchen/tabletop-and-bar/drinkware/glassware/3183/26413
/category/shop/home-and-kitchen/tabletop-and-bar/drinkware/water-bottles-and-travel/3183/26414
/category/shop/home-and-kitchen/tabletop-and-bar/drinkware/plastic/3183/26417
/category/shop/home-and-kitchen/tabletop-and-bar/drinkware/barware/3183/3184
/category/shop/home-and-kitchen/tabletop-and-bar/serveware/2993/26412
/category/shop/home-and-kitchen/kitchen-tools/canning-supplies/2992/3174
/category/shop/home-and-kitchen/kitchen-tools/fruit-and-vegetable-tools/2992/3175
/category/shop/home-and-kitchen/kitchen-tools/baking-and-pastries/2992/3176
/category/shop/home-and-kitchen/kitchen-tools/cooking-tools/2992/3177
/category/shop/home-and-kitchen/kitchen-tools/dinnerware/2992/3178
/category/shop/home-and-kitchen/kitchen-tools/bar-tools/2992/3180
/category/shop/home-and-kitchen/kitchen-tools/flatware-and-cutlery/2992/3182
/category/shop/home-and-kitchen/kitchen-tools/kitchen-storage-and-organization/2992/26418
/category/shop/home-and-kitchen/bakeware/foil-bakeware/2990/3167
/category/shop/home-and-kitchen/bakeware/baking-dishes/2990/3168
/category/shop/home-and-kitchen/bakeware/cake-and-muffin-sheets/2990/3169
/category/shop/home-and-kitchen/bakeware/baking-sheets/2990/308609
/category/shop/home-and-kitchen/bakeware/baking-and-decorating-tools/2990/368554
/category/shop/home-and-kitchen/bakeware/mixing-bowls/2990/368555
/category/shop/home-and-kitchen/cookware/fry-pans/2991/3170
/category/shop/home-and-kitchen/cookware/griddles/2991/3171
/category/shop/home-and-kitchen/cookware/sauce-pans-and-dutch-ovens/2991/3172
/category/shop/home-and-kitchen/cookware/roasters-and-pots/2991/3173
/category/shop/home-and-kitchen/cookware/cooking-sets/2991/308610
/category/shop/home-and-kitchen/home-organization-sale//420663
/category/shop/home-and-kitchen/domestics/bed/300269/300305
/category/shop/home-and-kitchen/domestics/bath/300269/300327
/category/shop/home-and-kitchen/domestics/kitchen/300269/300361
/category/shop/home-and-kitchen/domestics/miscellaneous/300269/300465
/category/shop/home-and-kitchen/domestics/as-seen-on-tv/300269/338289
/category/shop/home-and-kitchen/air-and-water-filters/air-filters/2995/3192
/category/shop/home-and-kitchen/air-and-water-filters/water-filters/2995/3193
/category/shop/home-and-kitchen/batteries/alkaline/2996/3194
/category/shop/home-and-kitchen/batteries/rechargeable/2996/3196
/category/shop/home-and-kitchen/batteries/watch-and-ear-aides/2996/3197
/category/shop/home-and-kitchen/pest-control/indoor/2997/3198
/category/shop/home-and-kitchen/pest-control/outdoor-pest-control/2997/3199
/category/shop/home-and-kitchen/pest-control/rodents/2997/3200
/category/shop/home-and-kitchen/water-softeners//3000
/category/shop/baby/diapers/diapers/3017/3260
/category/shop/baby/diapers/baby-wipes/3017/3261
/category/shop/baby/diapers/training-pants/3017/3262
/category/shop/baby/diapers/potty-seats/3017/3263
/category/shop/baby/diapers/diaper-care/3017/3264
/category/shop/baby/nursery/disposable-system-and-refills/3026/26366
/category/shop/baby/bath-and-skin-care/shampoo-and-conditioner/3018/3266
/category/shop/baby/bath-and-skin-care/wash-and-liquid-soap/3018/3267
/category/shop/baby/bath-and-skin-care/lotion-oil-and-powder/3018/3268
/category/shop/baby/bath-and-skin-care/bath-tub-and-accessories/3018/26340
/category/shop/baby/bath-and-skin-care/bath-toys/3018/26341
/category/shop/baby/bath-and-skin-care/mom-to-be-skin-care/3018/299742
/category/shop/baby/safety-and-health/health-and-wellness/electrolytes/3282/26358
/category/shop/baby/food-and-formula/formula/powder/26370/26385
/category/shop/baby/food-and-formula/formula/ready-to-feed/26370/26386
/category/shop/baby/food-and-formula/formula/concentrate/26370/26387
/category/shop/baby/food-and-formula/food/baby-cereal/26371/26374
/category/shop/baby/food-and-formula/food/first-stage/26371/26375
/category/shop/baby/food-and-formula/food/second-stage/26371/26376
/category/shop/baby/food-and-formula/food/third-stage/26371/26377
/category/shop/baby/food-and-formula/food/toddler-food/26371/26378
/category/shop/baby/food-and-formula/juice-and-water/3019/26372
/category/shop/baby/natural-and-organic/organic-baby-food-and-drinks/organic-baby-cereal/26373/26379
/category/shop/baby/natural-and-organic/organic-baby-food-and-drinks/organic-first-stage/26373/26380
/category/shop/baby/natural-and-organic/organic-baby-food-and-drinks/organic-second-stage/26373/26381
/category/shop/baby/natural-and-organic/organic-baby-food-and-drinks/organic-third-stage/26373/26382
/category/shop/baby/natural-and-organic/organic-baby-food-and-drinks/organic-toddler-food/26373/26383
/category/shop/baby/natural-and-organic/organic-baby-food-and-drinks/organic-juice/26373/26384
/category/shop/baby/bottle-and-feeding/bottles-and-accessories/3020/3272
/category/shop/baby/bottle-and-feeding/sippy-cup/3020/3273
/category/shop/baby/bottle-and-feeding/tableware/3020/3274
/category/shop/baby/bottle-and-feeding/pacifier/3020/3275
/category/shop/baby/bottle-and-feeding/high-chair-and-booster-seat/3020/3276
/category/shop/baby/bottle-and-feeding/breast-feeding/3020/26342
/category/shop/baby/gear-and-travel/car-seat/convertible/3279/26347
/category/shop/baby/gear-and-travel/car-seat/booster-seat/3279/26350
/category/shop/baby/gear-and-travel/stroller/stroller/26343/26351
/category/shop/baby/gear-and-travel/stroller/umbrella-stroller/26343/26352
/category/shop/baby/gear-and-travel/travel-accessories/3021/26344
/category/shop/baby/gear-and-travel/high-chair-and-feeding-booster-seat/3021/26345
/category/shop/baby/safety-and-health/safety/gates/3281/26356
/category/shop/baby/safety-and-health/safety/baby-proofing-accessories/3281/26357
/category/shop/baby/safety-and-health/health-and-wellness/electrolytes/3282/26358
/category/shop/baby/safety-and-health/health-and-wellness/teething/3282/26359
/category/shop/baby/safety-and-health/health-and-wellness/skincare/3282/26360
/category/shop/baby/safety-and-health/health-and-wellness/medication/3282/26361
/category/shop/baby/safety-and-health/health-and-wellness/humidifier/3282/26362
/category/shop/baby/safety-and-health/health-and-wellness/infant-health-care-accessories/3282/26363
/category/shop/baby/clothing/newborn/3023/3283
/category/shop/baby/clothing/baby/3023/3284
/category/shop/baby/clothing/toddler/3023/3285
/category/shop/baby/clothing/accessories/3023/3286
/category/shop/baby/clothing/gerber-apparel-clearance/3023/404574
/category/shop/toys/lego/3024/425305
/category/shop/toys/girls/dolls/3290/26445
/category/shop/toys/girls/dress-up/3290/26446
/category/shop/toys/girls/playsets/3290/26448
/category/shop/toys/boys/rc/3289/26440
/category/shop/toys/boys/action-figures/3289/26442
/category/shop/toys/boys/playsets/3289/26443
/category/shop/toys/boys/vehicles/3289/26444
/category/shop/toys/outdoor-toys/bubbles/3292/26451
/category/shop/toys/outdoor-toys/yard-toys/3292/26452
/category/shop/toys/outdoor-toys/water-and-dart-guns/3292/26453
/category/shop/toys/kids-kitchen-and-home/3024/390697
/category/shop/toys/riding-toys/3024/3291
/category/shop/toys/baby/baby-toys/3288/26435
/category/shop/toys/baby/infant-toys/3288/26436
/category/shop/toys/baby/learning/3288/26437
/category/shop/toys/baby/playsets/3288/26439
/category/shop/toys/games-and-puzzles/cards-and-dominos/3293/26454
/category/shop/toys/games-and-puzzles/family/3293/26455
/category/shop/toys/games-and-puzzles/kids/3293/26456
/category/shop/toys/games-and-puzzles/puzzles/3293/26457
/category/shop/baby/nursery/nursery-monitor/3026/26365
/category/shop/baby/nursery/disposable-system-and-refills/3026/26366
/category/shop/baby/nursery/nursery-accessories/3026/26367
/category/shop/baby/natural-and-organic/organic-baby-food-and-drinks/organic-baby-cereal/26373/26379
/category/shop/baby/natural-and-organic/organic-baby-food-and-drinks/organic-first-stage/26373/26380
/category/shop/baby/natural-and-organic/organic-baby-food-and-drinks/organic-second-stage/26373/26381
/category/shop/baby/natural-and-organic/organic-baby-food-and-drinks/organic-third-stage/26373/26382
/category/shop/baby/natural-and-organic/organic-baby-food-and-drinks/organic-toddler-food/26373/26383
/category/shop/baby/natural-and-organic/organic-baby-food-and-drinks/organic-juice/26373/26384
/category/shop/baby/natural-and-organic/organic-baby-skin-and-hair-care/26338/26390
/category/shop/baby/baby-clearance/diapers-wipes/404498/400249
/category/shop/baby/baby-clearance/clothing/404498/404576
/category/shop/outdoor-and-sports/grills-and-coolers/grills/3012/3253
/category/shop/outdoor-and-sports/grills-and-coolers/charcoal/3012/3254
/category/shop/outdoor-and-sports/grills-and-coolers/grilling-accessories/3012/3255
/category/shop/outdoor-and-sports/grills-and-coolers/coolers/3012/3256
/category/shop/outdoor-and-sports/grills-and-coolers/lighters/3012/3259
/category/shop/outdoor-and-sports/fishing/rods-reels-and-combos/389921/400970
/category/shop/outdoor-and-sports/fishing/fishing-line/389921/397767
/category/shop/outdoor-and-sports/fishing/lures/389921/400974
/category/shop/outdoor-and-sports/fishing/tackle-boxes/389921/400975
/category/shop/outdoor-and-sports/fishing/terminal-tackle/389921/403417
/category/shop/outdoor-and-sports/fishing/fishing-accessories/389921/400977
/category/shop/outdoor-and-sports/fishing/boating-accessories/389921/403414
/category/shop/outdoor-and-sports/fishing/fishing-clothing/389921/403412
/category/shop/outdoor-and-sports/garden-and-patio/garden-tools/3011/3248
/category/shop/outdoor-and-sports/garden-and-patio/furniture/3011/3249
/category/shop/outdoor-and-sports/garden-and-patio/pottery-and-planters/3011/3250
/category/shop/outdoor-and-sports/garden-and-patio/soil-fertilizer-and-lawn-care/3011/3251
/category/shop/outdoor-and-sports/garden-and-patio/plants-and-trees/3011/3252
/category/shop/outdoor-and-sports/garden-and-patio/outdoor-decor/3011/300021
/category/shop/outdoor-and-sports/garden-and-patio/pool-supplies/3011/308628
/category/shop/outdoor-and-sports/sporting-goods/backyard/3008/3236
/category/shop/outdoor-and-sports/sporting-goods/baseball-and-softball/3008/3237
/category/shop/outdoor-and-sports/sporting-goods/basketball/3008/3238
/category/shop/outdoor-and-sports/sporting-goods/football/3008/3239
/category/shop/outdoor-and-sports/sporting-goods/golf/3008/3240
/category/shop/outdoor-and-sports/sporting-goods/soccer/3008/3241
/category/shop/outdoor-and-sports/sporting-goods/tennis-and-table-tennis/3008/3242
/category/shop/outdoor-and-sports/sporting-goods/volleyball/3008/3243
/category/shop/outdoor-and-sports/fitness//3009
/category/shop/outdoor-and-sports/hunting/feeders/3010/3247
/category/shop/outdoor-and-sports/hunting/camping/3010/347007
/category/shop/outdoor-and-sports/hunting/rain-gear/3010/351741
/category/shop/outdoor-and-sports/automotive/auto-care/3013/3257
/category/shop/outdoor-and-sports/automotive/auto-accessories/3013/3258
/category/shop/outdoor-and-sports/outdoor-pest-control//3199
/category/shop/office-and-school/back-to-school/school-supplies/writing/407246/407252
/category/shop/office-and-school/back-to-school/school-supplies/organization-paper/407246/407253
/category/shop/office-and-school/back-to-school/school-supplies/tools/407246/407254
/category/shop/office-and-school/back-to-school/school-supplies/tapes-adhesive-fasteners/407246/407255
/category/shop/office-and-school/back-to-school/school-supplies/educational/407246/407256
/category/shop/office-and-school/back-to-school/backpacks/407245/407247
/category/shop/office-and-school/back-to-school/lunch-boxes/407245/407248
/category/shop/office-and-school/back-to-school/medicine-cabinet/first-aid-medicine/407250/407266
/category/shop/office-and-school/back-to-school/medicine-cabinet/vitamins/407250/407267
/category/shop/office-and-school/back-to-school/medicine-cabinet/germ-fighters/407250/413595
/category/shop/home-and-kitchen/back-to-campus/food-storage/407257/417192
/category/shop/office-and-school/school-supplies/backpacks-and-lunchkits/3004/3230
/category/shop/office-and-school/school-supplies/rulers-and-scissors/3004/3231
/category/shop/office-and-school/school-supplies/crayons-and-markers/3004/3232
/category/shop/office-and-school/school-supplies/general-school-supplies/3004/3233
/category/shop/office-and-school/office-supplies/index-cards/3001/3219
/category/shop/office-and-school/office-supplies/planners-pads-and-clipboards/3001/3220
/category/shop/office-and-school/office-supplies/tape/3001/3221
/category/shop/office-and-school/office-supplies/portfolios/3001/3222
/category/shop/office-and-school/office-supplies/writing-instruments/3001/3223
/category/shop/office-and-school/office-supplies/general-supplies/3001/3224
/category/shop/office-and-school/mailing-and-shipping/shipping/3002/3225
/category/shop/office-and-school/mailing-and-shipping/envelopes/3002/3226
/category/shop/office-and-school/binders-and-accessories/binders/3003/3227
/category/shop/office-and-school/binders-and-accessories/organizers/3003/3228
/category/shop/office-and-school/binders-and-accessories/dividers-and-labels/3003/3229
/category/shop/office-and-school/arts-and-crafts-kids/craft-supplies/3005/3234
/category/shop/office-and-school/arts-and-crafts-kids/glue/3005/3235
/category/shop/office-and-school/paper//3006
/category/shop/office-and-school/batteries//3218
/category/shop/clothing/women/sports-apparel/2889/406044
/category/shop/clothing/women/blouses-and-tees/2889/424160
/category/shop/baby/clothing/newborn/3023/3283
/category/shop/baby/clothing/baby/3023/3284
/category/shop/baby/clothing/toddler/3023/3285
/category/shop/baby/clothing/accessories/3023/3286
/category/shop/baby/clothing/gerber-apparel-clearance/3023/404574
/category/shop/clothing/sports-apparel/men/393965/393967
/category/shop/clothing/sports-apparel/women/393965/393968
/category/shop/clothing/sports-apparel/kids/393965/393969
/category/shop/clothing/sports-apparel/baby-toddler/393965/393970
/category/shop/clothing/fashion-accessories/belts-scarves-wraps/2877/2878
/category/shop/clothing/fashion-accessories/jewelry/2877/2879
